smart_gate.vcd
$date
	Wed Jan 14 10:47:28 2026
$end
$version
	Icarus Verilog
$end
$timescale
	1ps
$end
$scope module tb_smart_gate $end
$var wire 1 ! yellow_o $end
$var wire 1 " red_o $end
$var wire 1 # green_o $end
$var wire 1 $ gate_open_o $end
$var wire 1 % gate_close_o $end
$var wire 8 & car_count_o [7:0] $end
$var reg 1 ' car_i $end
$var reg 1 ( clear_i $end
$var reg 1 ) clk_i $end
$var reg 1 * cnt_reset_i $end
$var reg 1 + pay_ok_i $end
$var reg 1 , reset_ni $end
$var integer 32 - expected_count [31:0] $end
$var integer 32 . i [31:0] $end
$var integer 32 / lights [31:0] $end
$scope module dut $end
$var wire 1 ' car_i $end
$var wire 1 ( clear_i $end
$var wire 1 ) clk_i $end
$var wire 1 * cnt_reset_i $end
$var wire 1 + pay_ok_i $end
$var wire 1 , reset_ni $end
$var parameter 4 0 CLOSE $end
$var parameter 4 1 OPEN_PULSE $end
$var parameter 4 2 PASS_1 $end
$var parameter 4 3 PASS_2 $end
$var parameter 4 4 PASS_3 $end
$var parameter 4 5 PRE_CLOSE $end
$var parameter 4 6 PRE_OPEN_1 $end
$var parameter 4 7 PRE_OPEN_2 $end
$var parameter 4 8 WAIT $end
$var parameter 4 9 WAIT_CLEAR $end
$var reg 8 : car_count_o [7:0] $end
$var reg 1 % gate_close_o $end
$var reg 1 $ gate_open_o $end
$var reg 1 # green_o $end
$var reg 4 ; next_state [3:0] $end
$var reg 1 " red_o $end
$var reg 4 < state [3:0] $end
$var reg 1 ! yellow_o $end
$upscope $end
$scope task drive_request_one_cycle $end
$upscope $end
$scope task expect_lights $end
$var reg 1 = g $end
$var reg 1 > r $end
$var reg 256 ? tag [255:0] $end
$var reg 1 @ y $end
$upscope $end
$scope task expect_motor_now $end
$var reg 1 A close_pulse $end
$var reg 1 B open_pulse $end
$var reg 256 C tag [255:0] $end
$upscope $end
$upscope $end
$enddefinitions $end
$comment Show the parameter values. $end
$dumpall
b11 9
b0 8
b10 7
b1 6
b1000 5
b111 4
b110 3
b101 2
b100 1
b1001 0
$end
#0
$dumpvars
bx C
xB
xA
x@
bx ?
x>
x=
b0 <
b0 ;
b0 :
bx /
bx .
bx -
0,
0+
0*
0)
1(
0'
b0 &
0%
0$
0#
1"
0!
$end
#5000
1)
#10000
0)
#15000
1)
#20000
0)
#25000
1)
#30000
0)
#35000
1)
#40000
0)
#45000
b1 /
b110000101100110011101000110010101110010001000000111001001100101011100110110010101110100 ?
0=
0@
1>
1,
1)
#50000
0)
#55000
b0 -
b110000101100110011101000110010101110010001000000111001001100101011100110110010101110100 C
0A
0B
1)
#60000
b1 ;
1+
1'
0)
#65000
1)
#70000
1!
0"
b1 <
b10 ;
b10101000011000100100000010110010100010101001100010011000100111101010111010111110101000001010010010001010010000000110000 ?
1@
0>
0+
0'
0)
#75000
b10101000011000100100000010110010100010101001100010011000100111101010111010111110101000001010010010001010010000000110001 ?
b10101000011000100100000010110010100010101001100010011000100111101010111010111110101000001010010010001010010000000110000 C
1)
#80000
1!
b11 ;
b10 <
0)
#85000
b1010100001100010010000001010111010000010100100101010100010111110100001101001100010001010100000101010010 ?
b10101000011000100100000010110010100010101001100010011000100111101010111010111110101000001010010010001010010000000110001 C
1)
#90000
1!
b100 ;
b11 <
0)
#95000
b1010100001100010010000001001111010100000100010101001110 ?
1=
0@
b1010100001100010010000001010111010000010100100101010100010111110100001101001100010001010100000101010010 C
1)
#100000
1$
1#
0!
b101 ;
b100 <
0)
#105000
b1010100001100010010000001000111010100100100010101000101010011100010000000110000 ?
b1 -
b1010100001100010010000001001111010100000100010101001110 C
1B
1)
#110000
0$
1#
b110 ;
b1 &
b1 :
b101 <
0)
#115000
b1010100001100010010000001000111010100100100010101000101010011100010000000110001 ?
b1010100001100010010000001000111010100100100010101000101010011100010000000110000 C
0B
1)
#120000
1#
b111 ;
b110 <
0)
#125000
b1010100001100010010000001000111010100100100010101000101010011100010000000110010 ?
b1010100001100010010000001000111010100100100010101000101010011100010000000110001 C
1)
#130000
1#
b1000 ;
b111 <
0)
#135000
b10101000011000100100000010110010100010101001100010011000100111101010111 ?
0=
1@
b1010100001100010010000001000111010100100100010101000101010011100010000000110010 C
1)
#140000
1!
0#
b1001 ;
b1000 <
0)
#145000
b101010000110001001000000100001101001100010011110101001101000101 ?
0@
1>
b10101000011000100100000010110010100010101001100010011000100111101010111 C
1)
#150000
1%
1"
0!
b0 ;
b1001 <
0)
#155000
b1010100001100010010000001001001010001000100110001000101 ?
b101010000110001001000000100001101001100010011110101001101000101 C
1A
1)
#160000
0%
1"
b0 <
0)
#165000
b1010100001100010010000001001001010001000100110001000101 C
0A
1)
#170000
b1 ;
1+
1'
0)
#175000
1)
#180000
1!
0"
b1 <
b10 ;
b10101000011001000100000010110010100010101001100010011000100111101010111010111110101000001010010010001010010000000110000 ?
1@
0>
0+
0'
0)
#185000
b10101000011001000100000010110010100010101001100010011000100111101010111010111110101000001010010010001010010000000110001 ?
b10101000011001000100000010110010100010101001100010011000100111101010111010111110101000001010010010001010010000000110000 C
1)
#190000
1!
b11 ;
b10 <
0)
#195000
b10101000011001000100000010101110100000101001001010101000101111101000011010011000100010101000001010100100010000000110000 ?
0(
b10101000011001000100000010110010100010101001100010011000100111101010111010111110101000001010010010001010010000000110001 C
1)
#200000
1!
b11 <
0)
#205000
b10101000011001000100000010101110100000101001001010101000101111101000011010011000100010101000001010100100010000000110000 C
1)
#210000
0)
#215000
1)
#220000
0)
#225000
1)
#230000
0)
#235000
1)
#240000
0)
#245000
1)
#250000
b100 ;
b101010000110010001000000101011101000001010010010101010001011111010000110100110001000101010000010101001000100000011100100110010101101100 ?
1(
0)
#255000
b1010100001100100010000001001111010100000100010101001110 ?
1=
0@
b101010000110010001000000101011101000001010010010101010001011111010000110100110001000101010000010101001000100000011100100110010101101100 C
1)
#260000
1$
1#
0!
b101 ;
b100 <
0)
#265000
b1010100001100100010000001000111010100100100010101000101010011100010000000110000 ?
b10 -
b1010100001100100010000001001111010100000100010101001110 C
1B
1)
#270000
0$
1#
b110 ;
b10 &
b10 :
b101 <
0)
#275000
b1010100001100100010000001000111010100100100010101000101010011100010000000110001 ?
b1010100001100100010000001000111010100100100010101000101010011100010000000110000 C
0B
1)
#280000
1#
b111 ;
b110 <
0)
#285000
b1010100001100100010000001000111010100100100010101000101010011100010000000110010 ?
b1010100001100100010000001000111010100100100010101000101010011100010000000110001 C
1)
#290000
1#
b1000 ;
b111 <
0)
#295000
b10101000011001000100000010110010100010101001100010011000100111101010111 ?
0=
1@
b1010100001100100010000001000111010100100100010101000101010011100010000000110010 C
1)
#300000
1!
0#
b1001 ;
b1000 <
0)
#305000
b101010000110010001000000100001101001100010011110101001101000101 ?
0@
1>
b10101000011001000100000010110010100010101001100010011000100111101010111 C
1)
#310000
1%
1"
0!
b0 ;
b1001 <
0)
#315000
b1010100001100100010000001001001010001000100110001000101 ?
b101010000110010001000000100001101001100010011110101001101000101 C
1A
1)
#320000
0%
1"
b0 <
0)
#325000
b1010100001100100010000001001001010001000100110001000101 C
0A
1)
#330000
b1 ;
1+
1'
0)
#335000
1)
#340000
1!
0"
b1 <
b10 ;
b1010100001100110100000100100000010110010100010101001100010011000100111101010111010111110101000001010010010001010010000000110000 ?
1@
0>
0+
0'
0)
#345000
b1010100001100110100000100100000010110010100010101001100010011000100111101010111010111110101000001010010010001010010000000110001 ?
b1010100001100110100000100100000010110010100010101001100010011000100111101010111010111110101000001010010010001010010000000110000 C
1)
#350000
1!
b11 ;
b10 <
0)
#355000
b101010000110011010000010010000001010111010000010100100101010100010111110100001101001100010001010100000101010010 ?
b1010100001100110100000100100000010110010100010101001100010011000100111101010111010111110101000001010010010001010010000000110001 C
1)
#360000
1!
b100 ;
b11 <
0)
#365000
b101010000110011010000010010000001001111010100000100010101001110 ?
1=
0@
b101010000110011010000010010000001010111010000010100100101010100010111110100001101001100010001010100000101010010 C
1)
#370000
1$
1#
0!
b101 ;
b100 <
0)
#375000
b101010000110011010000010010000001000111010100100100010101000101010011100010000000110000 ?
b101010000110011010000010010000001001111010100000100010101001110 C
1B
1)
#380000
0$
1#
b110 ;
b101 <
b11 &
b11 :
0)
#385000
b101010000110011010000010010000001000111010100100100010101000101010011100010000000110000 C
0B
1)
#390000
1#
b111 ;
b0 &
b0 :
b110 <
1*
0)
#395000
1)
#400000
1#
b1000 ;
b111 <
b101010000110011010000010010000001000111010100100100010101000101010011100010000000110010 ?
0*
0)
#405000
b1010100001100110100000100100000010110010100010101001100010011000100111101010111 ?
0=
1@
b101010000110011010000010010000001000111010100100100010101000101010011100010000000110010 C
1)
#410000
1!
0#
b1001 ;
b1000 <
0)
#415000
b10101000011001101000001001000000100001101001100010011110101001101000101 ?
0@
1>
b1010100001100110100000100100000010110010100010101001100010011000100111101010111 C
1)
#420000
1%
1"
0!
b0 ;
b1001 <
0)
#425000
b101010000110011010000010010000001001001010001000100110001000101 ?
b10101000011001101000001001000000100001101001100010011110101001101000101 C
1A
1)
#430000
0%
1"
b0 <
0)
#435000
b0 .
b101010000110011010000010010000001001001010001000100110001000101 C
0A
1)
#440000
b1 ;
1+
1'
0)
#445000
1)
#450000
1!
0"
b1 <
b10 ;
b101010000110011010000100010000001011001010001010100110001001100010011110101011101011111010100000101001001000101 ?
1@
0>
0+
0'
0)
#455000
b101010000110011010000100010000001011001010001010100110001001100010011110101011101011111010100000101001001000101 C
1)
#460000
1!
b11 ;
b10 <
0)
#465000
b101010000110011010000100010000001010111010000010100100101010100010111110100001101001100010001010100000101010010 ?
1)
#470000
1!
b100 ;
b11 <
0)
#475000
b101010000110011010000100010000001001111010100000100010101001110 ?
1=
0@
b101010000110011010000100010000001010111010000010100100101010100010111110100001101001100010001010100000101010010 C
1)
#480000
1$
1#
0!
b101 ;
b100 <
0)
#485000
b10101000011001101000010001000000100011101010010010001010100010101001110 ?
b101010000110011010000100010000001001111010100000100010101001110 C
1B
1)
#490000
0$
1#
b110 ;
b1 &
b1 :
b101 <
0)
#495000
b10101000011001101000010001000000100011101010010010001010100010101001110 C
0B
1)
#500000
1#
b111 ;
b110 <
0)
#505000
1)
#510000
1#
b1000 ;
b111 <
0)
#515000
b1010100001100110100001000100000010110010100010101001100010011000100111101010111 ?
0=
1@
1)
#520000
1!
0#
b1001 ;
b1000 <
0)
#525000
b10101000011001101000010001000000100001101001100010011110101001101000101 ?
0@
1>
b1010100001100110100001000100000010110010100010101001100010011000100111101010111 C
1)
#530000
1%
1"
0!
b0 ;
b1001 <
0)
#535000
b101010000110011010000100010000001001001010001000100110001000101 ?
b10101000011001101000010001000000100001101001100010011110101001101000101 C
1A
1)
#540000
0%
1"
b0 <
0)
#545000
b1 .
b101010000110011010000100010000001001001010001000100110001000101 C
0A
1)
#550000
b1 ;
1+
1'
0)
#555000
1)
#560000
1!
0"
b1 <
b10 ;
b101010000110011010000100010000001011001010001010100110001001100010011110101011101011111010100000101001001000101 ?
1@
0>
0+
0'
0)
#565000
b101010000110011010000100010000001011001010001010100110001001100010011110101011101011111010100000101001001000101 C
1)
#570000
1!
b11 ;
b10 <
0)
#575000
b101010000110011010000100010000001010111010000010100100101010100010111110100001101001100010001010100000101010010 ?
1)
#580000
1!
b100 ;
b11 <
0)
#585000
b101010000110011010000100010000001001111010100000100010101001110 ?
1=
0@
b101010000110011010000100010000001010111010000010100100101010100010111110100001101001100010001010100000101010010 C
1)
#590000
1$
1#
0!
b101 ;
b100 <
0)
#595000
b10101000011001101000010001000000100011101010010010001010100010101001110 ?
b101010000110011010000100010000001001111010100000100010101001110 C
1B
1)
#600000
0$
1#
b110 ;
b101 <
b10 &
b10 :
0)
#605000
b10101000011001101000010001000000100011101010010010001010100010101001110 C
0B
1)
#610000
1#
b111 ;
b110 <
0)
#615000
1)
#620000
1#
b1000 ;
b111 <
0)
#625000
b1010100001100110100001000100000010110010100010101001100010011000100111101010111 ?
0=
1@
1)
#630000
1!
0#
b1001 ;
b1000 <
0)
#635000
b10101000011001101000010001000000100001101001100010011110101001101000101 ?
0@
1>
b1010100001100110100001000100000010110010100010101001100010011000100111101010111 C
1)
#640000
1%
1"
0!
b0 ;
b1001 <
0)
#645000
b101010000110011010000100010000001001001010001000100110001000101 ?
b10101000011001101000010001000000100001101001100010011110101001101000101 C
1A
1)
#650000
0%
1"
b0 <
0)
#655000
b10 .
b101010000110011010000100010000001001001010001000100110001000101 C
0A
1)
#660000
b1 ;
1+
1'
0)
#665000
1)
#670000
1!
0"
b1 <
b10 ;
b101010000110011010000100010000001011001010001010100110001001100010011110101011101011111010100000101001001000101 ?
1@
0>
0+
0'
0)
#675000
b101010000110011010000100010000001011001010001010100110001001100010011110101011101011111010100000101001001000101 C
1)
#680000
1!
b11 ;
b10 <
0)
#685000
b101010000110011010000100010000001010111010000010100100101010100010111110100001101001100010001010100000101010010 ?
1)
#690000
1!
b100 ;
b11 <
0)
#695000
b101010000110011010000100010000001001111010100000100010101001110 ?
1=
0@
b101010000110011010000100010000001010111010000010100100101010100010111110100001101001100010001010100000101010010 C
1)
#700000
1$
1#
0!
b101 ;
b100 <
0)
#705000
b10101000011001101000010001000000100011101010010010001010100010101001110 ?
b101010000110011010000100010000001001111010100000100010101001110 C
1B
1)
#710000
0$
1#
b110 ;
b11 &
b11 :
b101 <
0)
#715000
b10101000011001101000010001000000100011101010010010001010100010101001110 C
0B
1)
#720000
1#
b111 ;
b110 <
0)
#725000
1)
#730000
1#
b1000 ;
b111 <
0)
#735000
b1010100001100110100001000100000010110010100010101001100010011000100111101010111 ?
0=
1@
1)
#740000
1!
0#
b1001 ;
b1000 <
0)
#745000
b10101000011001101000010001000000100001101001100010011110101001101000101 ?
0@
1>
b1010100001100110100001000100000010110010100010101001100010011000100111101010111 C
1)
#750000
1%
1"
0!
b0 ;
b1001 <
0)
#755000
b101010000110011010000100010000001001001010001000100110001000101 ?
b10101000011001101000010001000000100001101001100010011110101001101000101 C
1A
1)
#760000
0%
1"
b0 <
0)
#765000
b11 .
b101010000110011010000100010000001001001010001000100110001000101 C
0A
1)
#770000
b1 ;
1+
1'
0)
#775000
1)
#780000
1!
0"
b1 <
b10 ;
b101010000110011010000100010000001011001010001010100110001001100010011110101011101011111010100000101001001000101 ?
1@
0>
0+
0'
0)
#785000
b101010000110011010000100010000001011001010001010100110001001100010011110101011101011111010100000101001001000101 C
1)
#790000
1!
b11 ;
b10 <
0)
#795000
b101010000110011010000100010000001010111010000010100100101010100010111110100001101001100010001010100000101010010 ?
1)
#800000
1!
b100 ;
b11 <
0)
#805000
b101010000110011010000100010000001001111010100000100010101001110 ?
1=
0@
b101010000110011010000100010000001010111010000010100100101010100010111110100001101001100010001010100000101010010 C
1)
#810000
1$
1#
0!
b101 ;
b100 <
0)
#815000
b10101000011001101000010001000000100011101010010010001010100010101001110 ?
b101010000110011010000100010000001001111010100000100010101001110 C
1B
1)
#820000
0$
1#
b110 ;
b101 <
b100 &
b100 :
0)
#825000
b10101000011001101000010001000000100011101010010010001010100010101001110 C
0B
1)
#830000
1#
b111 ;
b110 <
0)
#835000
1)
#840000
1#
b1000 ;
b111 <
0)
#845000
b1010100001100110100001000100000010110010100010101001100010011000100111101010111 ?
0=
1@
1)
#850000
1!
0#
b1001 ;
b1000 <
0)
#855000
b10101000011001101000010001000000100001101001100010011110101001101000101 ?
0@
1>
b1010100001100110100001000100000010110010100010101001100010011000100111101010111 C
1)
#860000
1%
1"
0!
b0 ;
b1001 <
0)
#865000
b101010000110011010000100010000001001001010001000100110001000101 ?
b10101000011001101000010001000000100001101001100010011110101001101000101 C
1A
1)
#870000
0%
1"
b0 <
0)
#875000
b100 .
b101010000110011010000100010000001001001010001000100110001000101 C
0A
1)
#880000
b1 ;
1+
1'
0)
#885000
1)
#890000
1!
0"
b1 <
b10 ;
b101010000110011010000100010000001011001010001010100110001001100010011110101011101011111010100000101001001000101 ?
1@
0>
0+
0'
0)
#895000
b101010000110011010000100010000001011001010001010100110001001100010011110101011101011111010100000101001001000101 C
1)
#900000
1!
b11 ;
b10 <
0)
#905000
b101010000110011010000100010000001010111010000010100100101010100010111110100001101001100010001010100000101010010 ?
1)
#910000
1!
b100 ;
b11 <
0)
#915000
b101010000110011010000100010000001001111010100000100010101001110 ?
1=
0@
b101010000110011010000100010000001010111010000010100100101010100010111110100001101001100010001010100000101010010 C
1)
#920000
1$
1#
0!
b101 ;
b100 <
0)
#925000
b10101000011001101000010001000000100011101010010010001010100010101001110 ?
b101010000110011010000100010000001001111010100000100010101001110 C
1B
1)
#930000
0$
1#
b110 ;
b101 &
b101 :
b101 <
0)
#935000
b10101000011001101000010001000000100011101010010010001010100010101001110 C
0B
1)
#940000
1#
b111 ;
b110 <
0)
#945000
1)
#950000
1#
b1000 ;
b111 <
0)
#955000
b1010100001100110100001000100000010110010100010101001100010011000100111101010111 ?
0=
1@
1)
#960000
1!
0#
b1001 ;
b1000 <
0)
#965000
b10101000011001101000010001000000100001101001100010011110101001101000101 ?
0@
1>
b1010100001100110100001000100000010110010100010101001100010011000100111101010111 C
1)
#970000
1%
1"
0!
b0 ;
b1001 <
0)
#975000
b101010000110011010000100010000001001001010001000100110001000101 ?
b10101000011001101000010001000000100001101001100010011110101001101000101 C
1A
1)
#980000
0%
1"
b0 <
0)
#985000
b101 .
b101010000110011010000100010000001001001010001000100110001000101 C
0A
1)
#990000
b1 ;
1+
1'
0)
#995000
1)
#1000000
1!
0"
b1 <
b10 ;
b101010000110011010000100010000001011001010001010100110001001100010011110101011101011111010100000101001001000101 ?
1@
0>
0+
0'
0)
#1005000
b101010000110011010000100010000001011001010001010100110001001100010011110101011101011111010100000101001001000101 C
1)
#1010000
1!
b11 ;
b10 <
0)
#1015000
b101010000110011010000100010000001010111010000010100100101010100010111110100001101001100010001010100000101010010 ?
1)
#1020000
1!
b100 ;
b11 <
0)
#1025000
b101010000110011010000100010000001001111010100000100010101001110 ?
1=
0@
b101010000110011010000100010000001010111010000010100100101010100010111110100001101001100010001010100000101010010 C
1)
#1030000
1$
1#
0!
b101 ;
b100 <
0)
#1035000
b10101000011001101000010001000000100011101010010010001010100010101001110 ?
b101010000110011010000100010000001001111010100000100010101001110 C
1B
1)
#1040000
0$
1#
b110 ;
b101 <
b110 &
b110 :
0)
#1045000
b10101000011001101000010001000000100011101010010010001010100010101001110 C
0B
1)
#1050000
1#
b111 ;
b110 <
0)
#1055000
1)
#1060000
1#
b1000 ;
b111 <
0)
#1065000
b1010100001100110100001000100000010110010100010101001100010011000100111101010111 ?
0=
1@
1)
#1070000
1!
0#
b1001 ;
b1000 <
0)
#1075000
b10101000011001101000010001000000100001101001100010011110101001101000101 ?
0@
1>
b1010100001100110100001000100000010110010100010101001100010011000100111101010111 C
1)
#1080000
1%
1"
0!
b0 ;
b1001 <
0)
#1085000
b101010000110011010000100010000001001001010001000100110001000101 ?
b10101000011001101000010001000000100001101001100010011110101001101000101 C
1A
1)
#1090000
0%
1"
b0 <
0)
#1095000
b110 .
b101010000110011010000100010000001001001010001000100110001000101 C
0A
1)
#1100000
b1 ;
1+
1'
0)
#1105000
1)
#1110000
1!
0"
b1 <
b10 ;
b101010000110011010000100010000001011001010001010100110001001100010011110101011101011111010100000101001001000101 ?
1@
0>
0+
0'
0)
#1115000
b101010000110011010000100010000001011001010001010100110001001100010011110101011101011111010100000101001001000101 C
1)
#1120000
1!
b11 ;
b10 <
0)
#1125000
b101010000110011010000100010000001010111010000010100100101010100010111110100001101001100010001010100000101010010 ?
1)
#1130000
1!
b100 ;
b11 <
0)
#1135000
b101010000110011010000100010000001001111010100000100010101001110 ?
1=
0@
b101010000110011010000100010000001010111010000010100100101010100010111110100001101001100010001010100000101010010 C
1)
#1140000
1$
1#
0!
b101 ;
b100 <
0)
#1145000
b10101000011001101000010001000000100011101010010010001010100010101001110 ?
b101010000110011010000100010000001001111010100000100010101001110 C
1B
1)
#1150000
0$
1#
b110 ;
b111 &
b111 :
b101 <
0)
#1155000
b10101000011001101000010001000000100011101010010010001010100010101001110 C
0B
1)
#1160000
1#
b111 ;
b110 <
0)
#1165000
1)
#1170000
1#
b1000 ;
b111 <
0)
#1175000
b1010100001100110100001000100000010110010100010101001100010011000100111101010111 ?
0=
1@
1)
#1180000
1!
0#
b1001 ;
b1000 <
0)
#1185000
b10101000011001101000010001000000100001101001100010011110101001101000101 ?
0@
1>
b1010100001100110100001000100000010110010100010101001100010011000100111101010111 C
1)
#1190000
1%
1"
0!
b0 ;
b1001 <
0)
#1195000
b101010000110011010000100010000001001001010001000100110001000101 ?
b10101000011001101000010001000000100001101001100010011110101001101000101 C
1A
1)
#1200000
0%
1"
b0 <
0)
#1205000
b111 .
b101010000110011010000100010000001001001010001000100110001000101 C
0A
1)
#1210000
b1 ;
1+
1'
0)
#1215000
1)
#1220000
1!
0"
b1 <
b10 ;
b101010000110011010000100010000001011001010001010100110001001100010011110101011101011111010100000101001001000101 ?
1@
0>
0+
0'
0)
#1225000
b101010000110011010000100010000001011001010001010100110001001100010011110101011101011111010100000101001001000101 C
1)
#1230000
1!
b11 ;
b10 <
0)
#1235000
b101010000110011010000100010000001010111010000010100100101010100010111110100001101001100010001010100000101010010 ?
1)
#1240000
1!
b100 ;
b11 <
0)
#1245000
b101010000110011010000100010000001001111010100000100010101001110 ?
1=
0@
b101010000110011010000100010000001010111010000010100100101010100010111110100001101001100010001010100000101010010 C
1)
#1250000
1$
1#
0!
b101 ;
b100 <
0)
#1255000
b10101000011001101000010001000000100011101010010010001010100010101001110 ?
b101010000110011010000100010000001001111010100000100010101001110 C
1B
1)
#1260000
0$
1#
b110 ;
b101 <
b1000 &
b1000 :
0)
#1265000
b10101000011001101000010001000000100011101010010010001010100010101001110 C
0B
1)
#1270000
1#
b111 ;
b110 <
0)
#1275000
1)
#1280000
1#
b1000 ;
b111 <
0)
#1285000
b1010100001100110100001000100000010110010100010101001100010011000100111101010111 ?
0=
1@
1)
#1290000
1!
0#
b1001 ;
b1000 <
0)
#1295000
b10101000011001101000010001000000100001101001100010011110101001101000101 ?
0@
1>
b1010100001100110100001000100000010110010100010101001100010011000100111101010111 C
1)
#1300000
1%
1"
0!
b0 ;
b1001 <
0)
#1305000
b101010000110011010000100010000001001001010001000100110001000101 ?
b10101000011001101000010001000000100001101001100010011110101001101000101 C
1A
1)
#1310000
0%
1"
b0 <
0)
#1315000
b1000 .
b101010000110011010000100010000001001001010001000100110001000101 C
0A
1)
#1320000
b1 ;
1+
1'
0)
#1325000
1)
#1330000
1!
0"
b1 <
b10 ;
b101010000110011010000100010000001011001010001010100110001001100010011110101011101011111010100000101001001000101 ?
1@
0>
0+
0'
0)
#1335000
b101010000110011010000100010000001011001010001010100110001001100010011110101011101011111010100000101001001000101 C
1)
#1340000
1!
b11 ;
b10 <
0)
#1345000
b101010000110011010000100010000001010111010000010100100101010100010111110100001101001100010001010100000101010010 ?
1)
#1350000
1!
b100 ;
b11 <
0)
#1355000
b101010000110011010000100010000001001111010100000100010101001110 ?
1=
0@
b101010000110011010000100010000001010111010000010100100101010100010111110100001101001100010001010100000101010010 C
1)
#1360000
1$
1#
0!
b101 ;
b100 <
0)
#1365000
b10101000011001101000010001000000100011101010010010001010100010101001110 ?
b101010000110011010000100010000001001111010100000100010101001110 C
1B
1)
#1370000
0$
1#
b110 ;
b1001 &
b1001 :
b101 <
0)
#1375000
b10101000011001101000010001000000100011101010010010001010100010101001110 C
0B
1)
#1380000
1#
b111 ;
b110 <
0)
#1385000
1)
#1390000
1#
b1000 ;
b111 <
0)
#1395000
b1010100001100110100001000100000010110010100010101001100010011000100111101010111 ?
0=
1@
1)
#1400000
1!
0#
b1001 ;
b1000 <
0)
#1405000
b10101000011001101000010001000000100001101001100010011110101001101000101 ?
0@
1>
b1010100001100110100001000100000010110010100010101001100010011000100111101010111 C
1)
#1410000
1%
1"
0!
b0 ;
b1001 <
0)
#1415000
b101010000110011010000100010000001001001010001000100110001000101 ?
b10101000011001101000010001000000100001101001100010011110101001101000101 C
1A
1)
#1420000
0%
1"
b0 <
0)
#1425000
b1001 .
b101010000110011010000100010000001001001010001000100110001000101 C
0A
1)
#1430000
b1 ;
1+
1'
0)
#1435000
1)
#1440000
1!
0"
b1 <
b10 ;
b101010000110011010000100010000001011001010001010100110001001100010011110101011101011111010100000101001001000101 ?
1@
0>
0+
0'
0)
#1445000
b101010000110011010000100010000001011001010001010100110001001100010011110101011101011111010100000101001001000101 C
1)
#1450000
1!
b11 ;
b10 <
0)
#1455000
b101010000110011010000100010000001010111010000010100100101010100010111110100001101001100010001010100000101010010 ?
1)
#1460000
1!
b100 ;
b11 <
0)
#1465000
b101010000110011010000100010000001001111010100000100010101001110 ?
1=
0@
b101010000110011010000100010000001010111010000010100100101010100010111110100001101001100010001010100000101010010 C
1)
#1470000
1$
1#
0!
b101 ;
b100 <
0)
#1475000
b10101000011001101000010001000000100011101010010010001010100010101001110 ?
b101010000110011010000100010000001001111010100000100010101001110 C
1B
1)
#1480000
0$
1#
b110 ;
b101 <
b1010 &
b1010 :
0)
#1485000
b10101000011001101000010001000000100011101010010010001010100010101001110 C
0B
1)
#1490000
1#
b111 ;
b110 <
0)
#1495000
1)
#1500000
1#
b1000 ;
b111 <
0)
#1505000
b1010100001100110100001000100000010110010100010101001100010011000100111101010111 ?
0=
1@
1)
#1510000
1!
0#
b1001 ;
b1000 <
0)
#1515000
b10101000011001101000010001000000100001101001100010011110101001101000101 ?
0@
1>
b1010100001100110100001000100000010110010100010101001100010011000100111101010111 C
1)
#1520000
1%
1"
0!
b0 ;
b1001 <
0)
#1525000
b101010000110011010000100010000001001001010001000100110001000101 ?
b10101000011001101000010001000000100001101001100010011110101001101000101 C
1A
1)
#1530000
0%
1"
b0 <
0)
#1535000
b1010 .
b101010000110011010000100010000001001001010001000100110001000101 C
0A
1)
#1540000
b1 ;
1+
1'
0)
#1545000
1)
#1550000
1!
0"
b1 <
b10 ;
b101010000110011010000100010000001011001010001010100110001001100010011110101011101011111010100000101001001000101 ?
1@
0>
0+
0'
0)
#1555000
b101010000110011010000100010000001011001010001010100110001001100010011110101011101011111010100000101001001000101 C
1)
#1560000
1!
b11 ;
b10 <
0)
#1565000
b101010000110011010000100010000001010111010000010100100101010100010111110100001101001100010001010100000101010010 ?
1)
#1570000
1!
b100 ;
b11 <
0)
#1575000
b101010000110011010000100010000001001111010100000100010101001110 ?
1=
0@
b101010000110011010000100010000001010111010000010100100101010100010111110100001101001100010001010100000101010010 C
1)
#1580000
1$
1#
0!
b101 ;
b100 <
0)
#1585000
b10101000011001101000010001000000100011101010010010001010100010101001110 ?
b101010000110011010000100010000001001111010100000100010101001110 C
1B
1)
#1590000
0$
1#
b110 ;
b1011 &
b1011 :
b101 <
0)
#1595000
b10101000011001101000010001000000100011101010010010001010100010101001110 C
0B
1)
#1600000
1#
b111 ;
b110 <
0)
#1605000
1)
#1610000
1#
b1000 ;
b111 <
0)
#1615000
b1010100001100110100001000100000010110010100010101001100010011000100111101010111 ?
0=
1@
1)
#1620000
1!
0#
b1001 ;
b1000 <
0)
#1625000
b10101000011001101000010001000000100001101001100010011110101001101000101 ?
0@
1>
b1010100001100110100001000100000010110010100010101001100010011000100111101010111 C
1)
#1630000
1%
1"
0!
b0 ;
b1001 <
0)
#1635000
b101010000110011010000100010000001001001010001000100110001000101 ?
b10101000011001101000010001000000100001101001100010011110101001101000101 C
1A
1)
#1640000
0%
1"
b0 <
0)
#1645000
b1011 .
b101010000110011010000100010000001001001010001000100110001000101 C
0A
1)
#1650000
b1 ;
1+
1'
0)
#1655000
1)
#1660000
1!
0"
b1 <
b10 ;
b101010000110011010000100010000001011001010001010100110001001100010011110101011101011111010100000101001001000101 ?
1@
0>
0+
0'
0)
#1665000
b101010000110011010000100010000001011001010001010100110001001100010011110101011101011111010100000101001001000101 C
1)
#1670000
1!
b11 ;
b10 <
0)
#1675000
b101010000110011010000100010000001010111010000010100100101010100010111110100001101001100010001010100000101010010 ?
1)
#1680000
1!
b100 ;
b11 <
0)
#1685000
b101010000110011010000100010000001001111010100000100010101001110 ?
1=
0@
b101010000110011010000100010000001010111010000010100100101010100010111110100001101001100010001010100000101010010 C
1)
#1690000
1$
1#
0!
b101 ;
b100 <
0)
#1695000
b10101000011001101000010001000000100011101010010010001010100010101001110 ?
b101010000110011010000100010000001001111010100000100010101001110 C
1B
1)
#1700000
0$
1#
b110 ;
b101 <
b1100 &
b1100 :
0)
#1705000
b10101000011001101000010001000000100011101010010010001010100010101001110 C
0B
1)
#1710000
1#
b111 ;
b110 <
0)
#1715000
1)
#1720000
1#
b1000 ;
b111 <
0)
#1725000
b1010100001100110100001000100000010110010100010101001100010011000100111101010111 ?
0=
1@
1)
#1730000
1!
0#
b1001 ;
b1000 <
0)
#1735000
b10101000011001101000010001000000100001101001100010011110101001101000101 ?
0@
1>
b1010100001100110100001000100000010110010100010101001100010011000100111101010111 C
1)
#1740000
1%
1"
0!
b0 ;
b1001 <
0)
#1745000
b101010000110011010000100010000001001001010001000100110001000101 ?
b10101000011001101000010001000000100001101001100010011110101001101000101 C
1A
1)
#1750000
0%
1"
b0 <
0)
#1755000
b1100 .
b101010000110011010000100010000001001001010001000100110001000101 C
0A
1)
#1760000
b1 ;
1+
1'
0)
#1765000
1)
#1770000
1!
0"
b1 <
b10 ;
b101010000110011010000100010000001011001010001010100110001001100010011110101011101011111010100000101001001000101 ?
1@
0>
0+
0'
0)
#1775000
b101010000110011010000100010000001011001010001010100110001001100010011110101011101011111010100000101001001000101 C
1)
#1780000
1!
b11 ;
b10 <
0)
#1785000
b101010000110011010000100010000001010111010000010100100101010100010111110100001101001100010001010100000101010010 ?
1)
#1790000
1!
b100 ;
b11 <
0)
